Delimit in space and time — sitrep_delimit_metadata • sitreper
…
mers_korea_2015_linelist %>%
  sitrep_delimit_spacetime_count_free(sex,
                                      age_class,
                                      week_var = epiweek_fct,
                                      week_ini = "2015-W22",
                                      week_fin = "2015-W23",
                                      space_var = loc_hosp_chr,
                                      space_num = Inf)
#> # A tibble: 38 x 4
#>    sex   age_class space_var                                               n
#>    <fct> <chr>     <chr>                                               <int>
#>  1 M     50-59     Samsung Medical Center, Seoul                           8
#>  2 M     60-69     Samsung Medical Center, Seoul                           7
#>  3 F     50-59     Samsung Medical Center, Seoul                           6
#>  4 F     40-49     Samsung Medical Center, Seoul                           5
#>  5 M     30-39     Samsung Medical Center, Seoul                           5
#>  6 M     40-49     Samsung Medical Center, Seoul                           5
#>  7 F     60-69     Samsung Medical Center, Seoul                           4
#>  8 M     70-79     Samsung Medical Center, Seoul                           4
#>  9 F     30-39     Samsung Medical Center, Seoul                           3
#> 10 F     50-59     Pyeongtaek St. Mary, Hospital, Pyeongtaek, Gyeonggi     3
#> # ... with 28 more rows
…
